500,9996
47,33,94,141,192,16,27,109,170,28,165,37,39,62,175,156,51,101,131,184,189,32,87,123,156,1,75,91,185,183,196,74,28,41,55,131,83,66,129,157,84,180,200,26,198,19,67,80,34,157,96,176,147,62,105,106,51,71,45,14,179,7,30,43,22,182,35,148,92,148,75,112,37,77,69,164,116,49,164,176,100,175,168,48,61,102,162,58,60,124,13,71,117,195,188,68,91,119,147,167,50,197,6,120,55,56,196,179,125,125,199,100,26,21,101,188,165,162,63,86,152,107,137,84,119,126,181,88,195,163,138,23,117,64,115,194,91,35,121,71,99,162,173,190,82,150,113,66,23,135,31,132,30,129,119,55,46,16,165,4,7,48,129,52,71,148,51,198,46,50,90,26,181,58,32,88,125,64,123,174,141,26,115,135,148,151,47,139,162,4,116,54,120,129,94,33,143,128,67,152,171,91,56,134,108,197,67,193,137,110,23,39,48,148,15,155,1,86,181,134,76,150,123,2,70,101,69,144,191,125,41,13,116,119,105,38,145,186,31,127,15,130,26,197,169,110,115,57,5,97,125,143,119,23,48,21,113,88,10,167,108,191,147,194,91,19,189,74,86,186,114,88,51,33,76,139,129,164,13,43,3,109,158,175,91,164,104,143,147,80,2,186,154,124,139,110,14,19,8,39,198,40,117,52,3,168,184,163,149,108,80,180,21,75,93,85,200,122,64,64,167,171,166,95,114,61,47,197,148,150,155,112,103,87,29,105,78,58,125,193,83,30,30,65,192,162,83,107,76,123,32,25,106,37,54,164,21,40,149,55,7,154,41,86,3,31,86,93,146,110,157,42,26,111,115,167,61,130,186,26,17,136,146,178,30,64,104,55,113,89,56,43,46,93,100,50,135,53,78,65,23,198,185,19,134,63,129,139,105,111,190,159,168,52,153,19,16,76,192,4,186,23,59,122,130,126,183,73,33,138,160,193,152,9,98,176,42,96,74,163,36,131,14,7,136,94,179,165,175,126,182,116,165,26,150,21,7,40,159,51,137,145,13,4,45,59,23,34,182,106,48,13,195,39,45,70,198,69,120,177,25,127,123,38,140,93,32,24,128,119,176,123,47,186,74,66,62,191,41,111
110,63,20,120,116,32,2,41,41,33,6,93,38,11,88,117,115,3,115,96,34,41,49,83,21,111,67,36,72,116,99,1,111,107,38,8,3,80,109,40,118,74,72,91,64,22,79,91,15,75,38,12,118,45,80,8,2,39,22,74,80,117,101,7,97,69,87,118,77,26,16,91,93,98,92,89,7,6,101,95,33,52,117,8,74,24,27,52,12,119,92,81,47,51,120,66,43,81,86,27,117,1,89,40,119,52,82,87,62,39,115,61,2,115,70,77,58,50,102,103,91,119,40,97,26,108,78,5,109,20,113,81,96,69,113,101,6,21,101,29,97,75,85,81,75,26,88,81,116,98,110,93,41,102,64,41,115,30,10,45,84,27,13,11,41,62,40,115,33,74,108,37,72,86,68,66,10,14,2,66,50,70,10,57,16,20,41,102,90,110,78,58,11,106,94,42,11,39,78,53,23,85,58,107,50,65,54,114,5,78,82,101,57,15,9,47,101,26,6,20,39,69,89,62,57,5,93,70,55,100,75,33,81,41,29,33,38,81,80,120,120,4,90,62,77,53,50,104,37,57,4,86,73,87,97,79,8,96,104,41,82,40,114,24,10,108,54,100,3,27,25,82,53,12,25,89,58,33,45,3,116,42,28,19,84,112,16,86,30,109,73,9,41,46,102,113,68,23,31,42,90,120,20,35,31,11,39,106,103,67,85,99,76,113,47,30,57,49,98,11,18,81,102,90,2,62,73,50,26,4,49,17,120,93,77,1,102,34,111,39,87,55,80,3,21,1,24,65,12,94,108,56,53,58,106,75,4,80,10,55,41,37,61,63,97,41,106,66,50,63,39,85,15,73,115,59,111,112,84,68,46,23,32,85,49,50,66,71,37,40,10,84,77,53,42,56,106,73,67,120,77,66,26,51,3,56,53,107,113,42,36,120,42,19,2,65,34,104,11,13,34,120,60,24,96,13,58,30,63,110,111,65,55,56,41,82,6,83,44,78,37,13,59,36,43,64,106,48,45,2,34,40,51,40,29,73,66,17,93,6,101,5,18,11,107,65,69,94,53,94,110,67,88,34,52,64,58,75,62,120,97,6,119,4,81,6,61,14,82,64,108,108,104,99,5,50,56,64,16,78
